<?xml version="1.0" encoding="utf-8"?>
<svg xmlns="http://www.w3.org/2000/svg" width="25" height="25" viewBox="0 0 51 48">
<title>star</title>
<path fill="#c00" stroke="#c00" d="m25,1 6,17h18l-14,11 5,17-15-10-15,10 5-17-14-11h18z"/>
</svg>
